…
It has variable for user `user_id`. Variables for orders are `order_id`,
`order_dow`, and `order_hour_of_day`. Variables for products are
`product_id` and `product_name`. There are also variables about aisle
and department, `aisle`, `aisle_id`, `department`, and `department_id`.

## Explore aisle

``` r
instacart %>% 
  count(aisle) %>% 
  arrange(desc(n))
```

    ## # A tibble: 134 x 2
    ##    aisle                              n
    ##    <chr>                          <int>
    ##  1 fresh vegetables              150609
    ##  2 fresh fruits                  150473
    ##  3 packaged vegetables fruits     78493
    ##  4 yogurt                         55240
    ##  5 packaged cheese                41699
    ##  6 water seltzer sparkling water  36617
    ##  7 milk                           32644
    ##  8 chips pretzels                 31269
    ##  9 soy lactosefree                26240
    ## 10 bread                          23635
    ## # … with 124 more rows
…
